<?xml version="1.0" encoding="utf-8"?>
<!DOCTYPE eagle SYSTEM "eagle.dtd">
<eagle version="7.2.0">
<drawing>
<settings>
<setting alwaysvectorfont="yes"/>
<setting verticaltext="up"/>
</settings>
<grid distance="0.01" unitdist="inch" unit="inch" style="dots" multiple="1" display="yes" altdistance="0.025" altunitdist="inch" altunit="inch"/>
<layers>
<layer number="1" name="Top" color="4" fill="1" visible="yes" active="yes"/>
<layer number="16" name="Bottom" color="1" fill="1" visible="yes" active="yes"/>
<layer number="17" name="Pads" color="2" fill="1" visible="yes" active="yes"/>
<layer number="18" name="Vias" color="2" fill="1" visible="yes" active="yes"/>
<layer number="19" name="Unrouted" color="6" fill="1" visible="yes" active="yes"/>
<layer number="20" name="Dimension" color="15" fill="1" visible="yes" active="yes"/>
<layer number="21" name="tPlace" color="7" fill="1" visible="yes" active="yes"/>
<layer number="22" name="bPlace" color="7" fill="1" visible="yes" active="yes"/>
<layer number="23" name="tOrigins" color="15" fill="1" visible="yes" active="yes"/>
<layer number="24" name="bOrigins" color="15" fill="1" visible="yes" active="yes"/>
<layer number="25" name="tNames" color="7" fill="1" visible="yes" active="yes"/>
<layer number="26" name="bNames" color="7" fill="1" visible="yes" active="yes"/>
<layer number="27" name="tValues" color="7" fill="1" visible="yes" active="yes"/>
<layer number="28" name="bValues" color="7" fill="1" visible="yes" active="yes"/>
<layer number="29" name="tStop" color="7" fill="3" visible="no" active="yes"/>
<layer number="30" name="bStop" color="7" fill="6" visible="no" active="yes"/>
<layer number="31" name="tCream" color="7" fill="4" visible="no" active="yes"/>
<layer number="32" name="bCream" color="7" fill="5" visible="no" active="yes"/>
<layer number="33" name="tFinish" color="6" fill="3" visible="no" active="yes"/>
<layer number="34" name="bFinish" color="6" fill="6" visible="no" active="yes"/>
<layer number="35" name="tGlue" color="7" fill="4" visible="no" active="yes"/>
<layer number="36" name="bGlue" color="7" fill="5" visible="no" active="yes"/>
<layer number="37" name="tTest" color="7" fill="1" visible="no" active="yes"/>
<layer number="38" name="bTest" color="7" fill="1" visible="no" active="yes"/>
<layer number="39" name="tKeepout" color="4" fill="11" visible="yes" active="yes"/>
<layer number="40" name="bKeepout" color="1" fill="11" visible="yes" active="yes"/>
<layer number="41" name="tRestrict" color="4" fill="10" visible="yes" active="yes"/>
<layer number="42" name="bRestrict" color="1" fill="10" visible="yes" active="yes"/>
<layer number="43" name="vRestrict" color="2" fill="10" visible="yes" active="yes"/>
<layer number="44" name="Drills" color="7" fill="1" visible="no" active="yes"/>
<layer number="45" name="Holes" color="7" fill="1" visible="no" active="yes"/>
<layer number="46" name="Milling" color="3" fill="1" visible="no" active="yes"/>
<layer number="47" name="Measures" color="7" fill="1" visible="no" active="yes"/>
<layer number="48" name="Document" color="7" fill="1" visible="yes" active="yes"/>
<layer number="49" name="Reference" color="7" fill="1" visible="yes" active="yes"/>
<layer number="50" name="dxf" color="7" fill="1" visible="no" active="no"/>
<layer number="51" name="tDocu" color="7" fill="1" visible="yes" active="yes"/>
<layer number="52" name="bDocu" color="7" fill="1" visible="yes" active="yes"/>
<layer number="53" name="tGND_GNDA" color="7" fill="9" visible="no" active="no"/>
<layer number="54" name="bGND_GNDA" color="1" fill="9" visible="no" active="no"/>
<layer number="56" name="wert" color="7" fill="1" visible="no" active="no"/>
<layer number="57" name="tCAD" color="7" fill="1" visible="no" active="no"/>
<layer number="59" name="tCarbon" color="7" fill="1" visible="no" active="no"/>
<layer number="60" name="bCarbon" color="7" fill="1" visible="no" active="no"/>
<layer number="90" name="Modules" color="5" fill="1" visible="no" active="no"/>
<layer number="91" name="Nets" color="2" fill="1" visible="no" active="no"/>
<layer number="92" name="Busses" color="1" fill="1" visible="no" active="no"/>
<layer number="93" name="Pins" color="2" fill="1" visible="no" active="no"/>
<layer number="94" name="Symbols" color="4" fill="1" visible="no" active="no"/>
<layer number="95" name="Names" color="7" fill="1" visible="no" active="no"/>
<layer number="96" name="Values" color="7" fill="1" visible="no" active="no"/>
<layer number="97" name="Info" color="7" fill="1" visible="no" active="no"/>
<layer number="98" name="Guide" color="6" fill="1" visible="no" active="no"/>
<layer number="99" name="SpiceOrder" color="7" fill="1" visible="no" active="no"/>
<layer number="100" name="Muster" color="7" fill="1" visible="no" active="no"/>
<layer number="101" name="Patch_Top" color="12" fill="4" visible="yes" active="yes"/>
<layer number="102" name="Vscore" color="7" fill="1" visible="yes" active="yes"/>
<layer number="103" name="tMap" color="7" fill="1" visible="yes" active="yes"/>
<layer number="104" name="Name" color="16" fill="1" visible="yes" active="yes"/>
<layer number="105" name="tPlate" color="7" fill="1" visible="yes" active="yes"/>
<layer number="106" name="bPlate" color="7" fill="1" visible="yes" active="yes"/>
<layer number="107" name="Crop" color="7" fill="1" visible="yes" active="yes"/>
<layer number="108" name="tplace-old" color="10" fill="1" visible="yes" active="yes"/>
<layer number="109" name="ref-old" color="11" fill="1" visible="yes" active="yes"/>
<layer number="110" name="fp0" color="7" fill="1" visible="yes" active="yes"/>
<layer number="111" name="LPC17xx" color="7" fill="1" visible="yes" active="yes"/>
<layer number="112" name="tSilk" color="7" fill="1" visible="yes" active="yes"/>
<layer number="113" name="IDFDebug" color="4" fill="1" visible="yes" active="yes"/>
<layer number="116" name="Patch_BOT" color="9" fill="4" visible="yes" active="yes"/>
<layer number="121" name="_tsilk" color="7" fill="1" visible="yes" active="yes"/>
<layer number="122" name="_bsilk" color="7" fill="1" visible="yes" active="yes"/>
<layer number="123" name="tTestmark" color="7" fill="1" visible="yes" active="yes"/>
<layer number="124" name="bTestmark" color="7" fill="1" visible="yes" active="yes"/>
<layer number="125" name="_tNames" color="7" fill="1" visible="yes" active="yes"/>
<layer number="126" name="_bNames" color="7" fill="1" visible="yes" active="yes"/>
<layer number="127" name="_tValues" color="7" fill="1" visible="yes" active="yes"/>
<layer number="128" name="_bValues" color="7" fill="1" visible="yes" active="yes"/>
<layer number="129" name="Mask" color="7" fill="1" visible="yes" active="yes"/>
<layer number="131" name="tAdjust" color="7" fill="1" visible="yes" active="yes"/>
<layer number="132" name="bAdjust" color="7" fill="1" visible="yes" active="yes"/>
<layer number="144" name="Drill_legend" color="7" fill="1" visible="yes" active="yes"/>
<layer number="150" name="Notes" color="7" fill="1" visible="yes" active="yes"/>
<layer number="151" name="HeatSink" color="7" fill="1" visible="yes" active="yes"/>
<layer number="152" name="_bDocu" color="7" fill="1" visible="yes" active="yes"/>
<layer number="153" name="FabDoc1" color="7" fill="1" visible="yes" active="yes"/>
<layer number="154" name="FabDoc2" color="7" fill="1" visible="yes" active="yes"/>
<layer number="155" name="FabDoc3" color="7" fill="1" visible="yes" active="yes"/>
<layer number="199" name="Contour" color="7" fill="1" visible="yes" active="yes"/>
<layer number="200" name="200bmp" color="1" fill="10" visible="yes" active="yes"/>
<layer number="201" name="201bmp" color="2" fill="10" visible="yes" active="yes"/>
<layer number="202" name="202bmp" color="3" fill="10" visible="yes" active="yes"/>
<layer number="203" name="203bmp" color="4" fill="10" visible="yes" active="yes"/>
<layer number="204" name="204bmp" color="5" fill="10" visible="yes" active="yes"/>
<layer number="205" name="205bmp" color="6" fill="10" visible="yes" active="yes"/>
<layer number="206" name="206bmp" color="7" fill="10" visible="yes" active="yes"/>
<layer number="207" name="207bmp" color="8" fill="10" visible="yes" active="yes"/>
<layer number="208" name="208bmp" color="9" fill="10" visible="yes" active="yes"/>
<layer number="209" name="209bmp" color="7" fill="1" visible="yes" active="yes"/>
<layer number="210" name="210bmp" color="7" fill="1" visible="yes" active="yes"/>
<layer number="211" name="211bmp" color="7" fill="1" visible="yes" active="yes"/>
<layer number="212" name="212bmp" color="7" fill="1" visible="yes" active="yes"/>
<layer number="213" name="213bmp" color="7" fill="1" visible="yes" active="yes"/>
<layer number="214" name="214bmp" color="7" fill="1" visible="yes" active="yes"/>
<layer number="215" name="215bmp" color="7" fill="1" visible="yes" active="yes"/>
<layer number="216" name="216bmp" color="7" fill="1" visible="yes" active="yes"/>
<layer number="217" name="217bmp" color="18" fill="1" visible="no" active="no"/>
<layer number="218" name="218bmp" color="19" fill="1" visible="no" active="no"/>
<layer number="219" name="219bmp" color="20" fill="1" visible="no" active="no"/>
<layer number="220" name="220bmp" color="21" fill="1" visible="no" active="no"/>
<layer number="221" name="221bmp" color="22" fill="1" visible="no" active="no"/>
<layer number="222" name="222bmp" color="23" fill="1" visible="no" active="no"/>
<layer number="223" name="223bmp" color="24" fill="1" visible="no" active="no"/>
<layer number="224" name="224bmp" color="25" fill="1" visible="no" active="no"/>
<layer number="225" name="225bmp" color="7" fill="1" visible="yes" active="yes"/>
<layer number="226" name="226bmp" color="7" fill="1" visible="yes" active="yes"/>
<layer number="227" name="227bmp" color="7" fill="1" visible="yes" active="yes"/>
<layer number="228" name="228bmp" color="7" fill="1" visible="yes" active="yes"/>
<layer number="229" name="229bmp" color="7" fill="1" visible="yes" active="yes"/>
<layer number="230" name="230bmp" color="7" fill="1" visible="yes" active="yes"/>
<layer number="231" name="231bmp" color="7" fill="1" visible="yes" active="yes"/>
<layer number="248" name="Housing" color="7" fill="1" visible="yes" active="yes"/>
<layer number="249" name="Edge" color="7" fill="1" visible="yes" active="yes"/>
<layer number="250" name="Descript" color="3" fill="1" visible="no" active="no"/>
<layer number="251" name="SMDround" color="12" fill="11" visible="no" active="no"/>
<layer number="254" name="cooling" color="7" fill="1" visible="yes" active="yes"/>
<layer number="255" name="routoute" color="7" fill="1" visible="yes" active="yes"/>
</layers>
<board>
<plain>
<text x="22.86" y="41.656" size="0.8128" layer="22" font="vector" rot="MR0" align="bottom-center">peter@hardy.dropbear.id.au</text>
<text x="5.842" y="54.61" size="1.6764" layer="25" font="vector" align="top-left">+</text>
<text x="51.816" y="54.356" size="1.6764" layer="25" font="vector" align="top-left">-</text>
<text x="51.816" y="46.736" size="1.6764" layer="25" font="vector" align="top-left">+</text>
<text x="5.842" y="46.736" size="1.6764" layer="25" font="vector" align="top-left">-</text>
<text x="27.686" y="42.164" size="0.8128" layer="25" font="vector" align="top-left">1</text>
<wire x1="28.702" y1="41.91" x2="29.464" y2="41.91" width="0.4064" layer="25"/>
<wire x1="29.464" y1="41.91" x2="29.464" y2="43.18" width="0.4064" layer="25"/>
<text x="29.464" y="67.818" size="1.6764" layer="26" font="vector" rot="MR0" align="center">EDGAR WiFi</text>
<text x="29.21" y="65.278" size="1.6764" layer="26" font="vector" rot="MR0" align="center">&gt;CREVISION</text>
</plain>
<libraries>
<library name="SparkFun-Capacitors">
<description>&lt;h3&gt;SparkFun Electronics' preferred foot prints&lt;/h3&gt;
In this library you'll find resistors, capacitors, inductors, test points, jumper pads, etc.&lt;br&gt;&lt;br&gt;
We've spent an enormous amount of time creating and checking these footprints and parts, but it is the end user's responsibility to ensure correctness and suitablity for a given componet or application. If you enjoy using this library, please buy one of our products at www.sparkfun.com.
&lt;br&gt;&lt;br&gt;
&lt;b&gt;Licensing:&lt;/b&gt; Creative Commons ShareAlike 4.0 International - https://creativecommons.org/licenses/by-sa/4.0/ 
&lt;br&gt;&lt;br&gt;
You are welcome to use this library for commercial purposes. For attribution, we ask that when you begin to sell your device using our footprint, you email us with a link to the product being sold. We want bragging rights that we helped (in a very small part) to create your 8th world wonder. We would like the opportunity to feature your device on our homepage.</description>
<packages>
<package name="CAP-PTH-SMALL-KIT">
<description>&lt;h3&gt;CAP-PTH-SMALL-KIT&lt;/h3&gt;
Commonly used for small ceramic capacitors. Like our 0.1uF (http://www.sparkfun.com/products/8375) or 22pF caps (http://www.sparkfun.com/products/8571).&lt;br&gt;
&lt;br&gt;
&lt;b&gt;Warning:&lt;/b&gt; This is the KIT version of this package. This package has a smaller diameter top stop mask, which doesn't cover the diameter of the pad. This means only the bottom side of the pads' copper will be exposed. You'll only be able to solder to the bottom side.</description>
<wire x1="0" y1="0.635" x2="0" y2="-0.635" width="0.254" layer="21"/>
<wire x1="-2.667" y1="1.27" x2="2.667" y2="1.27" width="0.254" layer="21"/>
<wire x1="2.667" y1="1.27" x2="2.667" y2="-1.27" width="0.254" layer="21"/>
<wire x1="2.667" y1="-1.27" x2="-2.667" y2="-1.27" width="0.254" layer="21"/>
<wire x1="-2.667" y1="-1.27" x2="-2.667" y2="1.27" width="0.254" layer="21"/>
<pad name="1" x="-1.397" y="0" drill="1.016" diameter="2.032" stop="no"/>
<pad name="2" x="1.397" y="0" drill="1.016" diameter="2.032" stop="no"/>
<polygon width="0.127" layer="30">
<vertex x="-1.4021" y="-0.9475" curve="-90"/>
<vertex x="-2.357" y="-0.0178" curve="-90.011749"/>
<vertex x="-1.4046" y="0.9576" curve="-90"/>
<vertex x="-0.4546" y="-0.0204" curve="-90.024193"/>
</polygon>
<polygon width="0.127" layer="29">
<vertex x="-1.4046" y="-0.4395" curve="-90.012891"/>
<vertex x="-1.8491" y="-0.0153" curve="-90"/>
<vertex x="-1.4046" y="0.452" curve="-90"/>
<vertex x="-0.9627" y="-0.0051" curve="-90.012967"/>
</polygon>
<polygon width="0.127" layer="30">
<vertex x="1.397" y="-0.9475" curve="-90"/>
<vertex x="0.4421" y="-0.0178" curve="-90.011749"/>
<vertex x="1.3945" y="0.9576" curve="-90"/>
<vertex x="2.3445" y="-0.0204" curve="-90.024193"/>
</polygon>
<polygon width="0.127" layer="29">
<vertex x="1.3945" y="-0.4395" curve="-90.012891"/>
<vertex x="0.95" y="-0.0153" curve="-90"/>
<vertex x="1.3945" y="0.452" curve="-90"/>
<vertex x="1.8364" y="-0.0051" curve="-90.012967"/>
</polygon>
</package>
<package name="CPOL-RADIAL-10UF-25V">
<wire x1="-0.762" y1="1.397" x2="-1.778" y2="1.397" width="0.2032" layer="21"/>
<circle x="0" y="0" radius="2.5" width="0.2032" layer="21"/>
<pad name="1" x="1.27" y="0" drill="0.7" diameter="1.651" shape="square"/>
<pad name="2" x="-1.27" y="0" drill="0.7" diameter="1.651"/>
<text x="-0.889" y="1.524" size="0.4064" layer="25">&gt;Name</text>
<text x="-1.905" y="-3.683" size="0.8128" layer="27">&gt;Value</text>
</package>
</packages>
</library>
<library name="SparkFun-LED">
<description>&lt;h3&gt;SparkFun Electronics' preferred foot prints&lt;/h3&gt;
In this library you'll find discrete LEDs for illumination or indication, but no displays.&lt;br&gt;&lt;br&gt;
We've spent an enormous amount of time creating and checking these footprints and parts, but it is the end user's responsibility to ensure correctness and suitablity for a given componet or application. If you enjoy using this library, please buy one of our products at www.sparkfun.com.
&lt;br&gt;&lt;br&gt;
&lt;b&gt;Licensing:&lt;/b&gt; Creative Commons ShareAlike 4.0 International - https://creativecommons.org/licenses/by-sa/4.0/ 
&lt;br&gt;&lt;br&gt;
You are welcome to use this library for commercial purposes. For attribution, we ask that when you begin to sell your device using our footprint, you email us with a link to the product being sold. We want bragging rights that we helped (in a very small part) to create your 8th world wonder. We would like the opportunity to feature your device on our homepage.</description>
<packages>
<package name="LED3MM">
<description>&lt;B&gt;LED&lt;/B&gt;&lt;p&gt;
3 mm, round</description>
<wire x1="1.5748" y1="-1.27" x2="1.5748" y2="1.27" width="0.254" layer="51"/>
<wire x1="0" y1="2.032" x2="1.561" y2="1.3009" width="0.254" layer="21" curve="-50.193108" cap="flat"/>
<wire x1="-1.7929" y1="0.9562" x2="0" y2="2.032" width="0.254" layer="21" curve="-61.926949" cap="flat"/>
<wire x1="0" y1="-2.032" x2="1.5512" y2="-1.3126" width="0.254" layer="21" curve="49.763022" cap="flat"/>
<wire x1="-1.7643" y1="-1.0082" x2="0" y2="-2.032" width="0.254" layer="21" curve="60.255215" cap="flat"/>
<wire x1="-2.032" y1="0" x2="-1.7891" y2="0.9634" width="0.254" layer="51" curve="-28.301701" cap="flat"/>
<wire x1="-2.032" y1="0" x2="-1.7306" y2="-1.065" width="0.254" layer="51" curve="31.60822" cap="flat"/>
<wire x1="1.5748" y1="1.2954" x2="1.5748" y2="0.7874" width="0.254" layer="21"/>
<wire x1="1.5748" y1="-1.2954" x2="1.5748" y2="-0.8382" width="0.254" layer="21"/>
<pad name="A" x="-1.27" y="0" drill="0.8128" diameter="1.8796"/>
<pad name="K" x="1.27" y="0" drill="0.8128" diameter="1.8796"/>
<text x="1.905" y="0.381" size="1.27" layer="25" ratio="10">&gt;NAME</text>
<text x="1.905" y="-1.651" size="1.27" layer="27" ratio="10">&gt;VALUE</text>
</package>
</packages>
</library>
<library name="SparkFun-Connectors">
<description>&lt;h3&gt;SparkFun Electronics' preferred foot prints&lt;/h3&gt;
In this library you'll find connectors and sockets- basically anything that can be plugged into or onto.&lt;br&gt;&lt;br&gt;
We've spent an enormous amount of time creating and checking these footprints and parts, but it is the end user's responsibility to ensure correctness and suitablity for a given componet or application. If you enjoy using this library, please buy one of our products at www.sparkfun.com.
&lt;br&gt;&lt;br&gt;
&lt;b&gt;Licensing:&lt;/b&gt; Creative Commons ShareAlike 4.0 International - https://creativecommons.org/licenses/by-sa/4.0/ 
&lt;br&gt;&lt;br&gt;
You are welcome to use this library for commercial purposes. For attribution, we ask that when you begin to sell your device using our footprint, you email us with a link to the product being sold. We want bragging rights that we helped (in a very small part) to create your 8th world wonder. We would like the opportunity to feature your device on our homepage.</description>
<packages>
<package name="1X02">
<wire x1="-0.635" y1="1.27" x2="0.635" y2="1.27" width="0.2032" layer="21"/>
<wire x1="0.635" y1="1.27" x2="1.27" y2="0.635" width="0.2032" layer="21"/>
<wire x1="1.27" y1="-0.635" x2="0.635" y2="-1.27" width="0.2032" layer="21"/>
<wire x1="1.27" y1="0.635" x2="1.905" y2="1.27" width="0.2032" layer="21"/>
<wire x1="1.905" y1="1.27" x2="3.175" y2="1.27" width="0.2032" layer="21"/>
<wire x1="3.175" y1="1.27" x2="3.81" y2="0.635" width="0.2032" layer="21"/>
<wire x1="3.81" y1="-0.635" x2="3.175" y2="-1.27" width="0.2032" layer="21"/>
<wire x1="3.175" y1="-1.27" x2="1.905" y2="-1.27" width="0.2032" layer="21"/>
<wire x1="1.905" y1="-1.27" x2="1.27" y2="-0.635" width="0.2032" layer="21"/>
<wire x1="-1.27" y1="0.635" x2="-1.27" y2="-0.635" width="0.2032" layer="21"/>
<wire x1="-0.635" y1="1.27" x2="-1.27" y2="0.635" width="0.2032" layer="21"/>
<wire x1="-1.27" y1="-0.635" x2="-0.635" y2="-1.27" width="0.2032" layer="21"/>
<wire x1="0.635" y1="-1.27" x2="-0.635" y2="-1.27" width="0.2032" layer="21"/>
<wire x1="3.81" y1="0.635" x2="3.81" y2="-0.635" width="0.2032" layer="21"/>
<pad name="1" x="0" y="0" drill="1.016" diameter="1.8796" rot="R90"/>
<pad name="2" x="2.54" y="0" drill="1.016" diameter="1.8796" rot="R90"/>
<text x="-1.3462" y="1.8288" size="1.27" layer="25" ratio="10">&gt;NAME</text>
<text x="-1.27" y="-3.175" size="1.27" layer="27">&gt;VALUE</text>
<rectangle x1="2.286" y1="-0.254" x2="2.794" y2="0.254" layer="51"/>
<rectangle x1="-0.254" y1="-0.254" x2="0.254" y2="0.254" layer="51"/>
</package>
<package name="1X02_2.54_SCREWTERM">
<pad name="P2" x="0" y="0" drill="1.016" shape="square"/>
<pad name="P1" x="2.54" y="0" drill="1.016" shape="square"/>
<wire x1="-1.5" y1="3.25" x2="4" y2="3.25" width="0.127" layer="21"/>
<wire x1="4" y1="3.25" x2="4" y2="2.5" width="0.127" layer="21"/>
<wire x1="4" y1="2.5" x2="4" y2="-3.25" width="0.127" layer="21"/>
<wire x1="4" y1="-3.25" x2="-1.5" y2="-3.25" width="0.127" layer="21"/>
<wire x1="-1.5" y1="-3.25" x2="-1.5" y2="2.5" width="0.127" layer="21"/>
<wire x1="-1.5" y1="2.5" x2="-1.5" y2="3.25" width="0.127" layer="21"/>
<wire x1="-1.5" y1="2.5" x2="4" y2="2.5" width="0.127" layer="21"/>
</package>
</packages>
</library>
<library name="SparkFun-Resistors">
<description>&lt;h3&gt;SparkFun Electronics' preferred foot prints&lt;/h3&gt;
In this library you'll find resistors, capacitors, inductors, test points, jumper pads, etc.&lt;br&gt;&lt;br&gt;
We've spent an enormous amount of time creating and checking these footprints and parts, but it is the end user's responsibility to ensure correctness and suitablity for a given componet or application. If you enjoy using this library, please buy one of our products at www.sparkfun.com.
&lt;br&gt;&lt;br&gt;
&lt;b&gt;Licensing:&lt;/b&gt; Creative Commons ShareAlike 4.0 International - https://creativecommons.org/licenses/by-sa/4.0/ 
&lt;br&gt;&lt;br&gt;
You are welcome to use this library for commercial purposes. For attribution, we ask that when you begin to sell your device using our footprint, you email us with a link to the product being sold. We want bragging rights that we helped (in a very small part) to create your 8th world wonder. We would like the opportunity to feature your device on our homepage.</description>
<packages>
<package name="1206">
<wire x1="-2.473" y1="0.983" x2="2.473" y2="0.983" width="0.0508" layer="39"/>
<wire x1="2.473" y1="-0.983" x2="-2.473" y2="-0.983" width="0.0508" layer="39"/>
<wire x1="-2.473" y1="-0.983" x2="-2.473" y2="0.983" width="0.0508" layer="39"/>
<wire x1="2.473" y1="0.983" x2="2.473" y2="-0.983" width="0.0508" layer="39"/>
<wire x1="-0.965" y1="0.787" x2="0.965" y2="0.787" width="0.1016" layer="51"/>
<wire x1="-0.965" y1="-0.787" x2="0.965" y2="-0.787" width="0.1016" layer="51"/>
<smd name="1" x="-1.4" y="0" dx="1.6" dy="1.8" layer="1"/>
<smd name="2" x="1.4" y="0" dx="1.6" dy="1.8" layer="1"/>
<text x="-1.27" y="1.143" size="0.4064" layer="25">&gt;NAME</text>
<text x="-1.397" y="-1.524" size="0.4064" layer="27">&gt;VALUE</text>
<rectangle x1="-1.7018" y1="-0.8509" x2="-0.9517" y2="0.8491" layer="51"/>
<rectangle x1="0.9517" y1="-0.8491" x2="1.7018" y2="0.8509" layer="51"/>
<rectangle x1="-0.1999" y1="-0.4001" x2="0.1999" y2="0.4001" layer="35"/>
</package>
</packages>
</library>
<library name="transistor">
<description>&lt;b&gt;Transistors&lt;/b&gt;&lt;p&gt;
&lt;author&gt;Created by librarian@cadsoft.de&lt;/author&gt;</description>
<packages>
<package name="TO92">
<description>&lt;b&gt;TO 92&lt;/b&gt;</description>
<wire x1="-2.0946" y1="-1.651" x2="-2.6549" y2="-0.254" width="0.127" layer="21" curve="-32.781"/>
<wire x1="-2.6549" y1="-0.254" x2="-0.7863" y2="2.5485" width="0.127" layer="21" curve="-78.3185"/>
<wire x1="0.7863" y1="2.5484" x2="2.0945" y2="-1.651" width="0.127" layer="21" curve="-111.1"/>
<wire x1="-2.0945" y1="-1.651" x2="2.0945" y2="-1.651" width="0.127" layer="21"/>
<wire x1="-2.2537" y1="-0.254" x2="-0.2863" y2="-0.254" width="0.127" layer="51"/>
<wire x1="-2.6549" y1="-0.254" x2="-2.2537" y2="-0.254" width="0.127" layer="21"/>
<wire x1="-0.2863" y1="-0.254" x2="0.2863" y2="-0.254" width="0.127" layer="21"/>
<wire x1="2.2537" y1="-0.254" x2="2.6549" y2="-0.254" width="0.127" layer="21"/>
<wire x1="0.2863" y1="-0.254" x2="2.2537" y2="-0.254" width="0.127" layer="51"/>
<wire x1="-0.7863" y1="2.5485" x2="0.7863" y2="2.5485" width="0.127" layer="51" curve="-34.2936"/>
<pad name="1" x="1.27" y="0" drill="0.8128" shape="octagon"/>
<pad name="2" x="0" y="1.905" drill="0.8128" shape="octagon"/>
<pad name="3" x="-1.27" y="0" drill="0.8128" shape="octagon"/>
<text x="3.175" y="0.635" size="1.27" layer="25" ratio="10">&gt;NAME</text>
<text x="3.175" y="-1.27" size="1.27" layer="27" ratio="10">&gt;VALUE</text>
<text x="-0.635" y="0.635" size="1.27" layer="51" ratio="10">2</text>
<text x="-2.159" y="0" size="1.27" layer="51" ratio="10">3</text>
<text x="1.143" y="0" size="1.27" layer="51" ratio="10">1</text>
</package>
</packages>
</library>
<library name="SparkFun-PowerIC">
<description>&lt;h3&gt;SparkFun Electronics' preferred foot prints&lt;/h3&gt;
In this library you'll find drivers, regulators, and amplifiers.&lt;br&gt;&lt;br&gt;
We've spent an enormous amount of time creating and checking these footprints and parts, but it is the end user's responsibility to ensure correctness and suitablity for a given componet or application. If you enjoy using this library, please buy one of our products at www.sparkfun.com.
&lt;br&gt;&lt;br&gt;
&lt;b&gt;Licensing:&lt;/b&gt; Creative Commons ShareAlike 4.0 International - https://creativecommons.org/licenses/by-sa/4.0/ 
&lt;br&gt;&lt;br&gt;
You are welcome to use this library for commercial purposes. For attribution, we ask that when you begin to sell your device using our footprint, you email us with a link to the product being sold. We want bragging rights that we helped (in a very small part) to create your 8th world wonder. We would like the opportunity to feature your device on our homepage.</description>
<packages>
<package name="78XXL">
<description>&lt;b&gt;VOLTAGE REGULATOR&lt;/b&gt;</description>
<wire x1="-5.207" y1="-1.27" x2="5.207" y2="-1.27" width="0.1524" layer="21"/>
<wire x1="5.207" y1="14.605" x2="-5.207" y2="14.605" width="0.1524" layer="21"/>
<wire x1="5.207" y1="-1.27" x2="5.207" y2="11.176" width="0.1524" layer="21"/>
<wire x1="5.207" y1="11.176" x2="4.318" y2="11.176" width="0.1524" layer="21"/>
<wire x1="4.318" y1="11.176" x2="4.318" y2="12.7" width="0.1524" layer="21"/>
<wire x1="4.318" y1="12.7" x2="5.207" y2="12.7" width="0.1524" layer="21"/>
<wire x1="5.207" y1="12.7" x2="5.207" y2="14.605" width="0.1524" layer="21"/>
<wire x1="-5.207" y1="-1.27" x2="-5.207" y2="11.176" width="0.1524" layer="21"/>
<wire x1="-5.207" y1="11.176" x2="-4.318" y2="11.176" width="0.1524" layer="21"/>
<wire x1="-4.318" y1="11.176" x2="-4.318" y2="12.7" width="0.1524" layer="21"/>
<wire x1="-4.318" y1="12.7" x2="-5.207" y2="12.7" width="0.1524" layer="21"/>
<wire x1="-5.207" y1="12.7" x2="-5.207" y2="14.605" width="0.1524" layer="21"/>
<wire x1="-4.572" y1="-0.635" x2="4.572" y2="-0.635" width="0.0508" layer="21"/>
<wire x1="4.572" y1="7.62" x2="4.572" y2="-0.635" width="0.0508" layer="21"/>
<wire x1="4.572" y1="7.62" x2="-4.572" y2="7.62" width="0.0508" layer="21"/>
<wire x1="-4.572" y1="-0.635" x2="-4.572" y2="7.62" width="0.0508" layer="21"/>
<circle x="0" y="11.176" radius="1.8034" width="0.1524" layer="21"/>
<circle x="0" y="11.176" radius="4.191" width="0" layer="42"/>
<circle x="0" y="11.176" radius="4.191" width="0" layer="43"/>
<pad name="IN" x="-2.54" y="-3.81" drill="1.016" shape="long" rot="R90"/>
<pad name="GND" x="0" y="-3.81" drill="1.016" shape="long" rot="R90"/>
<pad name="OUT" x="2.54" y="-3.81" drill="1.016" shape="long" rot="R90"/>
<text x="-3.81" y="5.08" size="1.778" layer="25" ratio="10">&gt;NAME</text>
<text x="-3.937" y="2.54" size="1.778" layer="27" ratio="10">&gt;VALUE</text>
<text x="-4.445" y="7.874" size="0.9906" layer="21" ratio="10">A15,2mm</text>
<text x="-0.508" y="0" size="1.27" layer="51" ratio="10">-</text>
<text x="-3.048" y="0" size="1.27" layer="51" ratio="10">I</text>
<text x="2.032" y="0" size="1.27" layer="51" ratio="10">O</text>
<rectangle x1="1.905" y1="-2.159" x2="3.175" y2="-1.27" layer="21"/>
<rectangle x1="1.905" y1="-3.81" x2="3.175" y2="-2.159" layer="51"/>
<rectangle x1="-0.635" y1="-2.159" x2="0.635" y2="-1.27" layer="21"/>
<rectangle x1="-3.175" y1="-2.159" x2="-1.905" y2="-1.27" layer="21"/>
<rectangle x1="-0.635" y1="-3.81" x2="0.635" y2="-2.159" layer="51"/>
<rectangle x1="-3.175" y1="-3.81" x2="-1.905" y2="-2.159" layer="51"/>
<hole x="0" y="11.176" drill="3.302"/>
</package>
</packages>
</library>
<library name="esp8266modules">
<packages>
<package name="ESP12E-SMD">
<description>ESP8266 Module 12E</description>
<wire x1="7.9" y1="14.2" x2="7.9" y2="6.9" width="0.127" layer="21"/>
<wire x1="-8.1" y1="6.9" x2="-8.1" y2="14.2" width="0.127" layer="21"/>
<wire x1="-8.1" y1="14.2" x2="7.9" y2="14.2" width="0.127" layer="21"/>
<wire x1="-4.9" y1="8.6" x2="-4.9" y2="13.5" width="0.6096" layer="21"/>
<wire x1="-4.9" y1="13.5" x2="-4" y2="13.5" width="0.6096" layer="21"/>
<wire x1="-4" y1="13.5" x2="-4" y2="9.8" width="0.6096" layer="21"/>
<wire x1="-4" y1="9.8" x2="-3" y2="9.8" width="0.6096" layer="21"/>
<wire x1="-3" y1="9.8" x2="-3" y2="13.4" width="0.6096" layer="21"/>
<wire x1="-3" y1="13.4" x2="-1.8" y2="13.4" width="0.6096" layer="21"/>
<wire x1="-1.8" y1="13.4" x2="-1.8" y2="9.8" width="0.6096" layer="21"/>
<wire x1="-1.8" y1="9.8" x2="-0.6" y2="9.8" width="0.6096" layer="21"/>
<wire x1="-0.6" y1="9.8" x2="-0.6" y2="13.4" width="0.6096" layer="21"/>
<wire x1="-0.6" y1="13.4" x2="0.5" y2="13.4" width="0.6096" layer="21"/>
<wire x1="0.5" y1="13.4" x2="0.5" y2="9.9" width="0.6096" layer="21"/>
<wire x1="0.5" y1="9.9" x2="1.6" y2="9.9" width="0.6096" layer="21"/>
<wire x1="1.6" y1="9.9" x2="1.6" y2="13.4" width="0.6096" layer="21"/>
<wire x1="1.6" y1="13.4" x2="5.6" y2="13.4" width="0.6096" layer="21"/>
<wire x1="-4.9" y1="8.5" x2="-4.9" y2="7.9" width="0.6096" layer="21"/>
<wire x1="-4.9" y1="7.9" x2="1.6" y2="7.9" width="0.6096" layer="21"/>
<text x="0" y="3" size="1.4224" layer="21" align="bottom-center">ESP - 12E</text>
<text x="-7.7" y="-11.9" size="1.4224" layer="27">&gt;Value</text>
<text x="-7.7" y="15.1" size="1.4224" layer="25">&gt;Name</text>
<smd name="RESET" x="-8.3" y="5.8" dx="3" dy="1.2" layer="1"/>
<smd name="ADC" x="-8.3" y="3.8" dx="3" dy="1.2" layer="1"/>
<smd name="CH_PD" x="-8.3" y="1.8" dx="3" dy="1.2" layer="1"/>
<smd name="GPIO16" x="-8.3" y="-0.2" dx="3" dy="1.2" layer="1"/>
<smd name="GPIO14" x="-8.3" y="-2.2" dx="3" dy="1.2" layer="1"/>
<smd name="GPIO12" x="-8.3" y="-4.2" dx="3" dy="1.2" layer="1"/>
<smd name="GPIO13" x="-8.3" y="-6.2" dx="3" dy="1.2" layer="1"/>
<smd name="VCC" x="-8.3" y="-8.2" dx="3" dy="1.2" layer="1"/>
<smd name="TXD0" x="8.1" y="5.8" dx="3" dy="1.2" layer="1"/>
<smd name="RXD0" x="8.1" y="3.8" dx="3" dy="1.2" layer="1"/>
<smd name="GPIO5" x="8.1" y="-0.2" dx="3" dy="1.2" layer="1"/>
<smd name="GPIO4" x="8.1" y="1.8" dx="3" dy="1.2" layer="1"/>
<smd name="GPIO0" x="8.1" y="-2.2" dx="3" dy="1.2" layer="1"/>
<smd name="GPIO2" x="8.1" y="-4.2" dx="3" dy="1.2" layer="1"/>
<smd name="GPIO15" x="8.1" y="-6.2" dx="3" dy="1.2" layer="1"/>
<smd name="GND" x="8.1" y="-8.2" dx="3" dy="1.2" layer="1"/>
<smd name="MOSI" x="3.2" y="-10.3" dx="3" dy="1.2" layer="1" rot="R90"/>
<smd name="GPIO10" x="1.2" y="-10.3" dx="3" dy="1.2" layer="1" rot="R90"/>
<smd name="GPIO9" x="-0.8" y="-10.3" dx="3" dy="1.2" layer="1" rot="R90"/>
<smd name="MISO" x="-2.8" y="-10.3" dx="3" dy="1.2" layer="1" rot="R90"/>
<smd name="CS0" x="-4.8" y="-10.3" dx="3" dy="1.2" layer="1" rot="R90"/>
<smd name="SCLK" x="5.2" y="-10.3" dx="3" dy="1.2" layer="1" rot="R90"/>
<wire x1="-5.8" y1="-9.8" x2="-8.1" y2="-9.8" width="0.127" layer="21"/>
<wire x1="7.9" y1="-9.8" x2="6.2" y2="-9.8" width="0.127" layer="21"/>
</package>
</packages>
</library>
<library name="dp_pcb">
<packages>
<package name="DP5031_V1">
<wire x1="4" y1="0" x2="46" y2="0" width="0" layer="20"/>
<wire x1="50" y1="4" x2="50" y2="27" width="0" layer="20"/>
<wire x1="46" y1="31" x2="4" y2="31" width="0" layer="20"/>
<wire x1="0" y1="27" x2="0" y2="4" width="0" layer="20"/>
<wire x1="-1.67" y1="31" x2="-1.67" y2="0" width="0.127" layer="47"/>
<wire x1="-2.305" y1="31" x2="-0.4" y2="31" width="0.127" layer="47"/>
<wire x1="-2.305" y1="0" x2="0.87" y2="0" width="0.127" layer="47"/>
<wire x1="0" y1="32.35" x2="50" y2="32.35" width="0.127" layer="47"/>
<wire x1="50" y1="32.985" x2="50" y2="30.445" width="0.127" layer="47"/>
<wire x1="0" y1="32.985" x2="0" y2="31.715" width="0.127" layer="47"/>
<wire x1="46" y1="4" x2="51.67" y2="4" width="0.127" layer="47"/>
<wire x1="51.67" y1="4" x2="52.305" y2="4" width="0.127" layer="47"/>
<wire x1="51.67" y1="4" x2="51.67" y2="0" width="0.127" layer="47"/>
<wire x1="48.495" y1="0" x2="52.305" y2="0" width="0.127" layer="47"/>
<wire x1="0" y1="4" x2="4" y2="0" width="0" layer="20" curve="90"/>
<wire x1="46" y1="0" x2="50" y2="4" width="0" layer="20" curve="90"/>
<wire x1="50" y1="27" x2="46" y2="31" width="0" layer="20" curve="90"/>
<wire x1="4" y1="31" x2="0" y2="27" width="0" layer="20" curve="90"/>
<wire x1="4.68" y1="2.14" x2="9.76" y2="-2.94" width="0.127" layer="47"/>
<wire x1="9.76" y1="-2.94" x2="13.57" y2="-2.94" width="0.127" layer="47"/>
<wire x1="2.68" y1="0.14" x2="9.76" y2="-6.94" width="0.127" layer="47"/>
<wire x1="9.76" y1="-6.94" x2="13.57" y2="-6.94" width="0.127" layer="47"/>
<wire x1="4" y1="30.15" x2="46" y2="30.15" width="1.7" layer="40"/>
<wire x1="4" y1="0.85" x2="46" y2="0.85" width="1.7" layer="40"/>
<wire x1="49.15" y1="4" x2="49.15" y2="27" width="1.7" layer="40"/>
<wire x1="0.85" y1="4" x2="0.85" y2="27" width="1.7" layer="40"/>
<wire x1="4" y1="30.15" x2="46" y2="30.15" width="1.7" layer="39"/>
<wire x1="4" y1="0.85" x2="46" y2="0.85" width="1.7" layer="39"/>
<wire x1="49.15" y1="4" x2="49.15" y2="27" width="1.7" layer="39"/>
<wire x1="0.85" y1="4" x2="0.85" y2="27" width="1.7" layer="39"/>
<wire x1="0" y1="15.5" x2="50" y2="15.5" width="0" layer="49"/>
<wire x1="25" y1="31" x2="25" y2="0" width="0" layer="49"/>
<wire x1="5.25" y1="17" x2="5.25" y2="14" width="0" layer="49"/>
<wire x1="44.75" y1="17" x2="44.75" y2="14" width="0" layer="49"/>
<wire x1="5" y1="15" x2="-3" y2="7" width="0" layer="49"/>
<wire x1="-3" y1="7" x2="-7" y2="7" width="0" layer="49"/>
<wire x1="45" y1="16" x2="52" y2="23" width="0" layer="49"/>
<wire x1="52" y1="23" x2="57" y2="23" width="0" layer="49"/>
<wire x1="0.85" y1="27" x2="4" y2="30.15" width="1.7" layer="39" curve="-90"/>
<wire x1="46" y1="30.15" x2="49.15" y2="27" width="1.7" layer="39" curve="-90"/>
<wire x1="49.15" y1="4" x2="46" y2="0.85" width="1.7" layer="39" curve="-90"/>
<wire x1="4" y1="0.85" x2="0.85" y2="4" width="1.7" layer="39" curve="-90"/>
<wire x1="0.85" y1="27" x2="4" y2="30.15" width="1.7" layer="40" curve="-90"/>
<wire x1="46" y1="30.15" x2="49.15" y2="27" width="1.7" layer="40" curve="-90"/>
<wire x1="49.15" y1="4" x2="46" y2="0.85" width="1.7" layer="40" curve="-90"/>
<wire x1="4" y1="0.85" x2="0.85" y2="4" width="1.7" layer="40" curve="-90"/>
<text x="21.095" y="32.35" size="2.54" layer="47">50mm</text>
<text x="-1.67" y="10.935" size="2.54" layer="47" rot="R90">31mm</text>
<text x="55.48" y="-1.035" size="2.54" layer="47" rot="R90">4.0mm</text>
<text x="13.57" y="-3.575" size="2.54" layer="47">D = 3.2mm</text>
<text x="13.57" y="-7.575" size="2.54" layer="47">R = 4.0mm</text>
<text x="43" y="1" size="1.27" layer="26" ratio="12" rot="MR0">DP5031_v1</text>
<text x="-7.2" y="7.35" size="1.016" layer="49" ratio="10">Center</text>
<text x="53.1" y="23.25" size="1.016" layer="49" ratio="10">Center</text>
<hole x="4" y="4" drill="3.2"/>
<hole x="46" y="4" drill="3.2"/>
<hole x="46" y="27" drill="3.2"/>
<hole x="4" y="27" drill="3.2"/>
<polygon width="0" layer="41">
<vertex x="7" y="31"/>
<vertex x="7" y="27" curve="-90"/>
<vertex x="4" y="24"/>
<vertex x="0" y="24"/>
<vertex x="0" y="27" curve="-90"/>
<vertex x="4" y="31"/>
</polygon>
<polygon width="0" layer="42">
<vertex x="7" y="31"/>
<vertex x="7" y="27" curve="-90"/>
<vertex x="4" y="24"/>
<vertex x="0" y="24"/>
<vertex x="0" y="27" curve="-90"/>
<vertex x="4" y="31"/>
</polygon>
<polygon width="0" layer="43">
<vertex x="7" y="31"/>
<vertex x="7" y="27" curve="-90"/>
<vertex x="4" y="24"/>
<vertex x="0" y="24"/>
<vertex x="0" y="27" curve="-90"/>
<vertex x="4" y="31"/>
</polygon>
<polygon width="0" layer="41">
<vertex x="50" y="24"/>
<vertex x="46" y="24" curve="-90"/>
<vertex x="43" y="27"/>
<vertex x="43" y="31"/>
<vertex x="46" y="31" curve="-90"/>
<vertex x="50" y="27"/>
</polygon>
<polygon width="0" layer="42">
<vertex x="50" y="24"/>
<vertex x="46" y="24" curve="-90"/>
<vertex x="43" y="27"/>
<vertex x="43" y="31"/>
<vertex x="46" y="31" curve="-90"/>
<vertex x="50" y="27"/>
</polygon>
<polygon width="0" layer="43">
<vertex x="50" y="24"/>
<vertex x="46" y="24" curve="-90"/>
<vertex x="43" y="27"/>
<vertex x="43" y="31"/>
<vertex x="46" y="31" curve="-90"/>
<vertex x="50" y="27"/>
</polygon>
<polygon width="0" layer="41">
<vertex x="0" y="7"/>
<vertex x="4" y="7" curve="-90"/>
<vertex x="7" y="4"/>
<vertex x="7" y="0"/>
<vertex x="4" y="0" curve="-90"/>
<vertex x="0" y="4"/>
</polygon>
<polygon width="0" layer="42">
<vertex x="0" y="7"/>
<vertex x="4" y="7" curve="-90"/>
<vertex x="7" y="4"/>
<vertex x="7" y="0"/>
<vertex x="4" y="0" curve="-90"/>
<vertex x="0" y="4"/>
</polygon>
<polygon width="0" layer="43">
<vertex x="0" y="7"/>
<vertex x="4" y="7" curve="-90"/>
<vertex x="7" y="4"/>
<vertex x="7" y="0"/>
<vertex x="4" y="0" curve="-90"/>
<vertex x="0" y="4"/>
</polygon>
<polygon width="0" layer="41">
<vertex x="43" y="0"/>
<vertex x="43" y="4" curve="-90"/>
<vertex x="46" y="7"/>
<vertex x="50" y="7"/>
<vertex x="50" y="4" curve="-90"/>
<vertex x="46" y="0"/>
</polygon>
<polygon width="0" layer="42">
<vertex x="43" y="0"/>
<vertex x="43" y="4" curve="-90"/>
<vertex x="46" y="7"/>
<vertex x="50" y="7"/>
<vertex x="50" y="4" curve="-90"/>
<vertex x="46" y="0"/>
</polygon>
<polygon width="0" layer="43">
<vertex x="43" y="0"/>
<vertex x="43" y="4" curve="-90"/>
<vertex x="46" y="7"/>
<vertex x="50" y="7"/>
<vertex x="50" y="4" curve="-90"/>
<vertex x="46" y="0"/>
</polygon>
</package>
</packages>
</library>
<library name="pinhead">
<description>&lt;b&gt;Pin Header Connectors&lt;/b&gt;&lt;p&gt;
&lt;author&gt;Created by librarian@cadsoft.de&lt;/author&gt;</description>
<packages>
<package name="2X03">
<description>&lt;b&gt;PIN HEADER&lt;/b&gt;</description>
<wire x1="-3.81" y1="-1.905" x2="-3.175" y2="-2.54" width="0.1524" layer="21"/>
<wire x1="-1.905" y1="-2.54" x2="-1.27" y2="-1.905" width="0.1524" layer="21"/>
<wire x1="-1.27" y1="-1.905" x2="-0.635" y2="-2.54" width="0.1524" layer="21"/>
<wire x1="0.635" y1="-2.54" x2="1.27" y2="-1.905" width="0.1524" layer="21"/>
<wire x1="-3.81" y1="-1.905" x2="-3.81" y2="1.905" width="0.1524" layer="21"/>
<wire x1="-3.81" y1="1.905" x2="-3.175" y2="2.54" width="0.1524" layer="21"/>
<wire x1="-3.175" y1="2.54" x2="-1.905" y2="2.54" width="0.1524" layer="21"/>
<wire x1="-1.905" y1="2.54" x2="-1.27" y2="1.905" width="0.1524" layer="21"/>
<wire x1="-1.27" y1="1.905" x2="-0.635" y2="2.54" width="0.1524" layer="21"/>
<wire x1="-0.635" y1="2.54" x2="0.635" y2="2.54" width="0.1524" layer="21"/>
<wire x1="0.635" y1="2.54" x2="1.27" y2="1.905" width="0.1524" layer="21"/>
<wire x1="-1.27" y1="1.905" x2="-1.27" y2="-1.905" width="0.1524" layer="21"/>
<wire x1="1.27" y1="1.905" x2="1.27" y2="-1.905" width="0.1524" layer="21"/>
<wire x1="-0.635" y1="-2.54" x2="0.635" y2="-2.54" width="0.1524" layer="21"/>
<wire x1="-3.175" y1="-2.54" x2="-1.905" y2="-2.54" width="0.1524" layer="21"/>
<wire x1="1.27" y1="-1.905" x2="1.905" y2="-2.54" width="0.1524" layer="21"/>
<wire x1="3.175" y1="-2.54" x2="3.81" y2="-1.905" width="0.1524" layer="21"/>
<wire x1="1.27" y1="1.905" x2="1.905" y2="2.54" width="0.1524" layer="21"/>
<wire x1="1.905" y1="2.54" x2="3.175" y2="2.54" width="0.1524" layer="21"/>
<wire x1="3.175" y1="2.54" x2="3.81" y2="1.905" width="0.1524" layer="21"/>
<wire x1="3.81" y1="1.905" x2="3.81" y2="-1.905" width="0.1524" layer="21"/>
<wire x1="1.905" y1="-2.54" x2="3.175" y2="-2.54" width="0.1524" layer="21"/>
<pad name="1" x="-2.54" y="-1.27" drill="1.016" shape="octagon"/>
<pad name="2" x="-2.54" y="1.27" drill="1.016" shape="octagon"/>
<pad name="3" x="0" y="-1.27" drill="1.016" shape="octagon"/>
<pad name="4" x="0" y="1.27" drill="1.016" shape="octagon"/>
<pad name="5" x="2.54" y="-1.27" drill="1.016" shape="octagon"/>
<pad name="6" x="2.54" y="1.27" drill="1.016" shape="octagon"/>
<text x="-3.81" y="3.175" size="1.27" layer="25" ratio="10">&gt;NAME</text>
<text x="-3.81" y="-4.445" size="1.27" layer="27">&gt;VALUE</text>
<rectangle x1="-2.794" y1="-1.524" x2="-2.286" y2="-1.016" layer="51"/>
<rectangle x1="-2.794" y1="1.016" x2="-2.286" y2="1.524" layer="51"/>
<rectangle x1="-0.254" y1="1.016" x2="0.254" y2="1.524" layer="51"/>
<rectangle x1="-0.254" y1="-1.524" x2="0.254" y2="-1.016" layer="51"/>
<rectangle x1="2.286" y1="1.016" x2="2.794" y2="1.524" layer="51"/>
<rectangle x1="2.286" y1="-1.524" x2="2.794" y2="-1.016" layer="51"/>
</package>
</packages>
</library>
</libraries>
<attributes>
<attribute name="CREVISION" value="v1.2"/>
</attributes>
<variantdefs>
</variantdefs>
<classes>
<class number="0" name="default" width="0" drill="0">
</class>
</classes>
<designrules name="oshpark-2layer">
<description language="de">&lt;b&gt;EAGLE Design Rules&lt;/b&gt;
&lt;p&gt;
Die Standard-Design-Rules sind so gewÃ¤hlt, dass sie fÃ¼r 
die meisten Anwendungen passen. Sollte ihre Platine 
besondere Anforderungen haben, treffen Sie die erforderlichen
Einstellungen hier und speichern die Design Rules unter 
einem neuen Namen ab.</description>
<description language="en">&lt;b&gt;Laen's PCB Order Design Rules&lt;/b&gt;
&lt;p&gt;
Please make sure your boards conform to these design rules.</description>
<param name="layerSetup" value="(1*16)"/>
<param name="mtCopper" value="0.0356mm 0.0356mm 0.0356mm 0.0356mm 0.0356mm 0.0356mm 0.0356mm 0.0356mm 0.0356mm 0.0356mm 0.0356mm 0.0356mm 0.0356mm 0.0356mm 0.0356mm 0.0356mm"/>
<param name="mtIsolate" value="1.5011mm 0.1499mm 0.2007mm 0.1499mm 0.2007mm 0.1499mm 0.2007mm 0.1499mm 0.2007mm 0.1499mm 0.2007mm 0.1499mm 0.2007mm 0.1499mm 0.2007mm"/>
<param name="mdWireWire" value="6mil"/>
<param name="mdWirePad" value="6mil"/>
<param name="mdWireVia" value="6mil"/>
<param name="mdPadPad" value="6mil"/>
<param name="mdPadVia" value="6mil"/>
<param name="mdViaVia" value="6mil"/>
<param name="mdSmdPad" value="6mil"/>
<param name="mdSmdVia" value="6mil"/>
<param name="mdSmdSmd" value="6mil"/>
<param name="mdViaViaSameLayer" value="8mil"/>
<param name="mnLayersViaInSmd" value="2"/>
<param name="mdCopperDimension" value="15mil"/>
<param name="mdDrill" value="6mil"/>
<param name="mdSmdStop" value="0mil"/>
<param name="msWidth" value="6mil"/>
<param name="msDrill" value="13mil"/>
<param name="msMicroVia" value="13mil"/>
<param name="msBlindViaRatio" value="0.5"/>
<param name="rvPadTop" value="0.25"/>
<param name="rvPadInner" value="0.25"/>
<param name="rvPadBottom" value="0.25"/>
<param name="rvViaOuter" value="0.25"/>
<param name="rvViaInner" value="0.25"/>
<param name="rvMicroViaOuter" value="0.25"/>
<param name="rvMicroViaInner" value="0.25"/>
<param name="rlMinPadTop" value="7mil"/>
<param name="rlMaxPadTop" value="20mil"/>
<param name="rlMinPadInner" value="7mil"/>
<param name="rlMaxPadInner" value="20mil"/>
<param name="rlMinPadBottom" value="7mil"/>
<param name="rlMaxPadBottom" value="20mil"/>
<param name="rlMinViaOuter" value="7mil"/>
<param name="rlMaxViaOuter" value="20mil"/>
<param name="rlMinViaInner" value="7mil"/>
<param name="rlMaxViaInner" value="20mil"/>
<param name="rlMinMicroViaOuter" value="4mil"/>
<param name="rlMaxMicroViaOuter" value="20mil"/>
<param name="rlMinMicroViaInner" value="4mil"/>
<param name="rlMaxMicroViaInner" value="20mil"/>
<param name="psTop" value="-1"/>
<param name="psBottom" value="-1"/>
<param name="psFirst" value="-1"/>
<param name="psElongationLong" value="100"/>
<param name="psElongationOffset" value="100"/>
<param name="mvStopFrame" value="1"/>
<param name="mvCreamFrame" value="0"/>
<param name="mlMinStopFrame" value="2.5mil"/>
<param name="mlMaxStopFrame" value="2.5mil"/>
<param name="mlMinCreamFrame" value="0mil"/>
<param name="mlMaxCreamFrame" value="0mil"/>
<param name="mlViaStopLimit" value="0mil"/>
<param name="srRoundness" value="0"/>
<param name="srMinRoundness" value="0mil"/>
<param name="srMaxRoundness" value="0mil"/>
<param name="slThermalIsolate" value="10mil"/>
<param name="slThermalsForVias" value="0"/>
<param name="dpMaxLengthDifference" value="10mm"/>
<param name="dpGapFactor" value="2.5"/>
<param name="checkGrid" value="0"/>
<param name="checkAngle" value="0"/>
<param name="checkFont" value="1"/>
<param name="checkRestrict" value="1"/>
<param name="useDiameter" value="13"/>
<param name="maxErrors" value="50"/>
</designrules>
<autorouter>
<pass name="Default">
<param name="RoutingGrid" value="6.25mil"/>
<param name="AutoGrid" value="1"/>
<param name="Efforts" value="2"/>
<param name="TopRouterVariant" value="1"/>
<param name="tpViaShape" value="round"/>
<param name="PrefDir.1" value="*"/>
<param name="PrefDir.2" value="0"/>
<param name="PrefDir.3" value="0"/>
<param name="PrefDir.4" value="0"/>
<param name="PrefDir.5" value="0"/>
<param name="PrefDir.6" value="0"/>
<param name="PrefDir.7" value="0"/>
<param name="PrefDir.8" value="0"/>
<param name="PrefDir.9" value="0"/>
<param name="PrefDir.10" value="0"/>
<param name="PrefDir.11" value="0"/>
<param name="PrefDir.12" value="0"/>
<param name="PrefDir.13" value="0"/>
<param name="PrefDir.14" value="0"/>
<param name="PrefDir.15" value="0"/>
<param name="PrefDir.16" value="-"/>
<param name="cfVia" value="8"/>
<param name="cfNonPref" value="5"/>
<param name="cfChangeDir" value="2"/>
<param name="cfOrthStep" value="2"/>
<param name="cfDiagStep" value="3"/>
<param name="cfExtdStep" value="0"/>
<param name="cfBonusStep" value="1"/>
<param name="cfMalusStep" value="1"/>
<param name="cfPadImpact" value="4"/>
<param name="cfSmdImpact" value="4"/>
<param name="cfBusImpact" value="0"/>
<param name="cfHugging" value="3"/>
<param name="cfAvoid" value="4"/>
<param name="cfPolygon" value="10"/>
<param name="cfBase.1" value="0"/>
<param name="cfBase.2" value="1"/>
<param name="cfBase.3" value="1"/>
<param name="cfBase.4" value="1"/>
<param name="cfBase.5" value="1"/>
<param name="cfBase.6" value="1"/>
<param name="cfBase.7" value="1"/>
<param name="cfBase.8" value="1"/>
<param name="cfBase.9" value="1"/>
<param name="cfBase.10" value="1"/>
<param name="cfBase.11" value="1"/>
<param name="cfBase.12" value="1"/>
<param name="cfBase.13" value="1"/>
<param name="cfBase.14" value="1"/>
<param name="cfBase.15" value="1"/>
<param name="cfBase.16" value="0"/>
<param name="mnVias" value="20"/>
<param name="mnSegments" value="9999"/>
<param name="mnExtdSteps" value="9999"/>
<param name="mnRipupLevel" value="10"/>
<param name="mnRipupSteps" value="100"/>
<param name="mnRipupTotal" value="100"/>
</pass>
<pass name="Follow-me" refer="Default" active="yes">
</pass>
<pass name="Busses" refer="Default" active="yes">
<param name="cfNonPref" value="4"/>
<param name="cfBusImpact" value="4"/>
<param name="cfHugging" value="0"/>
<param name="mnVias" value="0"/>
</pass>
<pass name="Route" refer="Default" active="yes">
</pass>
<pass name="Optimize1" refer="Default" active="yes">
<param name="cfVia" value="99"/>
<param name="cfExtdStep" value="10"/>
<param name="cfHugging" value="1"/>
<param name="mnExtdSteps" value="1"/>
<param name="mnRipupLevel" value="0"/>
</pass>
<pass name="Optimize2" refer="Optimize1" active="yes">
<param name="cfNonPref" value="0"/>
<param name="cfChangeDir" value="6"/>
<param name="cfExtdStep" value="0"/>
<param name="cfBonusStep" value="2"/>
<param name="cfMalusStep" value="2"/>
<param name="cfPadImpact" value="2"/>
<param name="cfSmdImpact" value="2"/>
<param name="cfHugging" value="0"/>
</pass>
<pass name="Optimize3" refer="Optimize2" active="yes">
<param name="cfChangeDir" value="8"/>
<param name="cfPadImpact" value="0"/>
<param name="cfSmdImpact" value="0"/>
</pass>
<pass name="Optimize4" refer="Optimize3" active="yes">
<param name="cfChangeDir" value="25"/>
</pass>
</autorouter>
<elements>
<element name="C1" library="SparkFun-Capacitors" package="CAP-PTH-SMALL-KIT" value="100nF" x="8.636" y="55.372" rot="R90">
<attribute name="PROD_ID" value="CAP-08370" x="8.636" y="55.372" size="1.778" layer="27" rot="R90" display="off"/>
</element>
<element name="C2" library="SparkFun-Capacitors" package="CPOL-RADIAL-10UF-25V" value="10uF" x="8.636" y="60.96" rot="R90">
<attribute name="PROD_ID" value="CAP-08440" x="8.636" y="60.96" size="1.778" layer="27" rot="R90" display="off"/>
</element>
<element name="D1" library="SparkFun-LED" package="LED3MM" value="" x="44.958" y="66.548" smashed="yes" rot="R180">
<attribute name="NAME" x="47.625" y="64.389" size="0.8128" layer="25" ratio="10" rot="R180"/>
<attribute name="VALUE" x="43.053" y="68.199" size="1.27" layer="27" ratio="10" rot="R180"/>
</element>
<element name="BTN" library="SparkFun-Connectors" package="1X02" value="" x="40.386" y="45.466" smashed="yes" rot="R270">
<attribute name="NAME" x="39.0398" y="47.0408" size="0.8128" layer="25" ratio="10"/>
<attribute name="VALUE" x="37.211" y="46.736" size="1.27" layer="27" rot="R270"/>
</element>
<element name="RELAY" library="SparkFun-Connectors" package="1X02_2.54_SCREWTERM" value="" x="51.054" y="51.054" rot="R270"/>
<element name="5V" library="SparkFun-Connectors" package="1X02_2.54_SCREWTERM" value="" x="7.62" y="48.514" rot="R90"/>
<element name="R1" library="SparkFun-Resistors" package="1206" value="330" x="48.006" y="57.658" rot="R270"/>
<element name="R2" library="SparkFun-Resistors" package="1206" value="10k" x="51.308" y="57.658" rot="R270"/>
<element name="R3" library="SparkFun-Resistors" package="1206" value="330" x="48.26" y="61.976" rot="R180"/>
<element name="R4" library="SparkFun-Resistors" package="1206" value="150" x="44.704" y="46.228" rot="R180"/>
<element name="R5" library="SparkFun-Resistors" package="1206" value="10k" x="44.704" y="42.926" rot="R180"/>
<element name="T1" library="transistor" package="TO92" value="BC547" x="44.704" y="50.8" smashed="yes" rot="R270">
<attribute name="NAME" x="41.783" y="52.451" size="0.8128" layer="25" ratio="10" rot="R270"/>
</element>
<element name="U1" library="SparkFun-PowerIC" package="78XXL" value="V_REG_LD1117VXX" x="16.764" y="54.102" smashed="yes">
<attribute name="NAME" x="20.574" y="51.562" size="0.8128" layer="25" ratio="10"/>
</element>
<element name="U2" library="esp8266modules" package="ESP12E-SMD" value="" x="32.766" y="62.484"/>
<element name="U$1" library="dp_pcb" package="DP5031_V1" value="" x="4.318" y="39.624"/>
<element name="R6" library="SparkFun-Resistors" package="1206" value="10k" x="18.542" y="43.942" rot="R270"/>
<element name="R7" library="SparkFun-Resistors" package="1206" value="10k" x="21.844" y="43.942" rot="R90"/>
<element name="R8" library="SparkFun-Resistors" package="1206" value="10k" x="44.704" y="57.658" rot="R270"/>
<element name="R9" library="SparkFun-Resistors" package="1206" value="10k" x="25.146" y="43.942" rot="R90"/>
<element name="PGM" library="pinhead" package="2X03" value="" x="32.004" y="45.466" smashed="yes">
<attribute name="NAME" x="27.686" y="48.641" size="0.8128" layer="25" ratio="10"/>
<attribute name="VALUE" x="28.194" y="41.021" size="1.27" layer="27"/>
</element>
</elements>
<signals>
<signal name="VCC">
<contactref element="C1" pad="1"/>
<contactref element="U1" pad="OUT"/>
<contactref element="R4" pad="2"/>
<contactref element="R3" pad="2"/>
<contactref element="5V" pad="P1"/>
<wire x1="7.62" y1="51.054" x2="7.62" y2="51.562" width="0.4064" layer="1"/>
<wire x1="7.62" y1="51.562" x2="8.636" y2="52.578" width="0.4064" layer="1"/>
<wire x1="8.636" y1="52.578" x2="8.636" y2="53.975" width="0.4064" layer="1"/>
<wire x1="7.62" y1="51.054" x2="9.906" y2="51.054" width="0.4064" layer="1"/>
<wire x1="19.304" y1="49.53" x2="19.304" y2="50.292" width="0.4064" layer="16"/>
<wire x1="9.906" y1="51.054" x2="12.7" y2="48.26" width="0.4064" layer="1"/>
<wire x1="12.7" y1="48.26" x2="18.034" y2="48.26" width="0.4064" layer="1"/>
<wire x1="18.034" y1="48.26" x2="19.304" y2="49.53" width="0.4064" layer="1"/>
<wire x1="19.304" y1="49.53" x2="19.304" y2="50.292" width="0.4064" layer="1"/>
<wire x1="19.304" y1="50.292" x2="19.304" y2="53.848" width="0.4064" layer="16"/>
<wire x1="19.304" y1="53.848" x2="27.686" y2="62.23" width="0.4064" layer="16"/>
<wire x1="27.686" y1="62.23" x2="44.196" y2="62.23" width="0.4064" layer="16"/>
<via x="44.196" y="62.23" extent="1-16" drill="0.6"/>
<wire x1="44.196" y1="62.23" x2="46.606" y2="62.23" width="0.4064" layer="1"/>
<wire x1="46.606" y1="62.23" x2="46.86" y2="61.976" width="0.4064" layer="1"/>
<wire x1="44.196" y1="62.23" x2="44.196" y2="53.848" width="0.4064" layer="16"/>
<wire x1="44.196" y1="53.848" x2="41.91" y2="51.562" width="0.4064" layer="16"/>
<wire x1="41.91" y1="51.562" x2="41.91" y2="48.768" width="0.4064" layer="16"/>
<via x="41.91" y="48.768" extent="1-16" drill="0.6"/>
<wire x1="41.91" y1="48.768" x2="41.91" y2="47.622" width="0.4064" layer="1"/>
<wire x1="41.91" y1="47.622" x2="43.304" y2="46.228" width="0.4064" layer="1"/>
</signal>
<signal name="GND">
<contactref element="C1" pad="2"/>
<contactref element="C2" pad="2"/>
<contactref element="U1" pad="IN"/>
<contactref element="U2" pad="GND"/>
<contactref element="T1" pad="1"/>
<contactref element="R2" pad="1"/>
<contactref element="R5" pad="1"/>
<contactref element="5V" pad="P2"/>
<polygon width="0.4064" layer="16">
<vertex x="4.318" y="70.612"/>
<vertex x="54.61" y="70.612"/>
<vertex x="54.61" y="39.624"/>
<vertex x="4.318" y="39.624"/>
<vertex x="4.064" y="39.624"/>
<vertex x="4.064" y="70.612"/>
</polygon>
<polygon width="0.4064" layer="1">
<vertex x="4.064" y="70.612"/>
<vertex x="54.61" y="70.612"/>
<vertex x="54.61" y="64.516"/>
<vertex x="54.61" y="39.37"/>
<vertex x="4.064" y="39.37"/>
</polygon>
<contactref element="R8" pad="1"/>
<contactref element="PGM" pad="6"/>
</signal>
<signal name="N$1">
<contactref element="R1" pad="2"/>
<contactref element="T1" pad="2"/>
<contactref element="R2" pad="2"/>
<wire x1="48.006" y1="56.258" x2="51.308" y2="56.258" width="0.4064" layer="1"/>
<wire x1="46.482" y1="50.927" x2="46.609" y2="50.8" width="0.4064" layer="1"/>
<wire x1="46.482" y1="50.927" x2="46.482" y2="52.832" width="0.4064" layer="1"/>
<wire x1="46.482" y1="52.832" x2="48.006" y2="54.356" width="0.4064" layer="1"/>
<wire x1="48.006" y1="54.356" x2="48.006" y2="56.258" width="0.4064" layer="1"/>
</signal>
<signal name="OUT0">
<contactref element="R1" pad="1"/>
<contactref element="U2" pad="GPIO5"/>
<wire x1="40.866" y1="62.284" x2="42.11" y2="62.284" width="0.4064" layer="1"/>
<wire x1="42.11" y1="62.284" x2="43.688" y2="60.706" width="0.4064" layer="1"/>
<wire x1="43.688" y1="60.706" x2="45.72" y2="60.706" width="0.4064" layer="1"/>
<wire x1="45.72" y1="60.706" x2="46.482" y2="59.944" width="0.4064" layer="1"/>
<wire x1="46.482" y1="59.944" x2="47.12" y2="59.944" width="0.4064" layer="1"/>
<wire x1="47.12" y1="59.944" x2="48.006" y2="59.058" width="0.4064" layer="1"/>
</signal>
<signal name="N$5">
<contactref element="T1" pad="3"/>
<contactref element="RELAY" pad="P2"/>
<contactref element="D1" pad="K"/>
<wire x1="43.688" y1="66.548" x2="51.054" y2="59.182" width="0.4064" layer="16"/>
<wire x1="51.054" y1="59.182" x2="51.054" y2="51.054" width="0.4064" layer="16"/>
<wire x1="44.704" y1="52.07" x2="47.498" y2="52.07" width="0.4064" layer="16"/>
<wire x1="47.498" y1="52.07" x2="48.514" y2="51.054" width="0.4064" layer="16"/>
<wire x1="48.514" y1="51.054" x2="51.054" y2="51.054" width="0.4064" layer="16"/>
</signal>
<signal name="N$6">
<contactref element="RELAY" pad="P1"/>
<contactref element="R4" pad="1"/>
<wire x1="46.104" y1="46.228" x2="47.498" y2="46.228" width="0.4064" layer="1"/>
<wire x1="47.498" y1="46.228" x2="49.784" y2="48.514" width="0.4064" layer="1"/>
<wire x1="49.784" y1="48.514" x2="51.054" y2="48.514" width="0.4064" layer="1"/>
</signal>
<signal name="IN0">
<contactref element="U2" pad="GPIO4"/>
<contactref element="R5" pad="2"/>
<contactref element="BTN" pad="2"/>
<wire x1="43.304" y1="42.926" x2="43.434" y2="43.434" width="0.4064" layer="1"/>
<wire x1="43.434" y1="43.434" x2="43.942" y2="42.926" width="0.4064" layer="1"/>
<via x="37.846" y="60.452" extent="1-16" drill="0.6"/>
<wire x1="37.846" y1="60.452" x2="37.846" y2="62.992" width="0.4064" layer="1"/>
<wire x1="37.846" y1="62.992" x2="39.116" y2="64.262" width="0.4064" layer="1"/>
<wire x1="39.116" y1="64.262" x2="40.844" y2="64.262" width="0.4064" layer="1"/>
<wire x1="40.844" y1="64.262" x2="40.866" y2="64.284" width="0.4064" layer="1"/>
<wire x1="37.846" y1="60.452" x2="37.846" y2="45.466" width="0.4064" layer="16"/>
<wire x1="37.846" y1="45.466" x2="40.386" y2="42.926" width="0.4064" layer="16"/>
<wire x1="40.386" y1="42.926" x2="43.304" y2="42.926" width="0.4064" layer="1"/>
</signal>
<signal name="N$3">
<contactref element="R3" pad="1"/>
<contactref element="D1" pad="A"/>
<wire x1="49.66" y1="61.976" x2="49.66" y2="62.1" width="0.4064" layer="1"/>
<wire x1="49.66" y1="62.1" x2="46.99" y2="64.77" width="0.4064" layer="1"/>
<wire x1="46.99" y1="64.77" x2="46.99" y2="65.786" width="0.4064" layer="1"/>
<wire x1="46.99" y1="65.786" x2="46.228" y2="66.548" width="0.4064" layer="1"/>
</signal>
<signal name="RX">
<contactref element="U2" pad="RXD0"/>
<contactref element="PGM" pad="4"/>
<via x="35.052" y="60.452" extent="1-16" drill="0.6"/>
<wire x1="35.052" y1="60.452" x2="35.052" y2="65.024" width="0.4064" layer="1"/>
<wire x1="35.052" y1="65.024" x2="36.322" y2="66.294" width="0.4064" layer="1"/>
<wire x1="36.322" y1="66.294" x2="40.856" y2="66.294" width="0.4064" layer="1"/>
<wire x1="40.856" y1="66.294" x2="40.866" y2="66.284" width="0.4064" layer="1"/>
<wire x1="32.004" y1="46.736" x2="35.052" y2="49.784" width="0.4064" layer="16"/>
<wire x1="35.052" y1="49.784" x2="35.052" y2="60.452" width="0.4064" layer="16"/>
</signal>
<signal name="TX">
<contactref element="U2" pad="TXD0"/>
<contactref element="PGM" pad="3"/>
<wire x1="40.654" y1="68.072" x2="40.866" y2="68.284" width="0.4064" layer="1"/>
<wire x1="32.004" y1="44.196" x2="30.734" y2="45.466" width="0.4064" layer="16"/>
<wire x1="30.734" y1="45.466" x2="30.734" y2="47.752" width="0.4064" layer="16"/>
<wire x1="30.734" y1="47.752" x2="32.004" y2="49.022" width="0.4064" layer="16"/>
<wire x1="32.004" y1="49.022" x2="32.004" y2="60.452" width="0.4064" layer="16"/>
<via x="32.004" y="60.452" extent="1-16" drill="0.6"/>
<wire x1="32.004" y1="60.452" x2="32.004" y2="67.056" width="0.4064" layer="1"/>
<wire x1="32.004" y1="67.056" x2="33.274" y2="68.326" width="0.4064" layer="1"/>
<wire x1="33.274" y1="68.326" x2="40.824" y2="68.326" width="0.4064" layer="1"/>
<wire x1="40.824" y1="68.326" x2="40.866" y2="68.284" width="0.4064" layer="1"/>
</signal>
<signal name="RESET">
<contactref element="R6" pad="1"/>
<contactref element="U2" pad="RESET"/>
<contactref element="PGM" pad="2"/>
<wire x1="18.542" y1="45.342" x2="18.542" y2="45.974" width="0.4064" layer="1"/>
<wire x1="18.542" y1="45.974" x2="19.05" y2="45.974" width="0.4064" layer="1"/>
<wire x1="19.05" y1="45.974" x2="21.082" y2="48.006" width="0.4064" layer="1"/>
<wire x1="21.082" y1="48.006" x2="28.194" y2="48.006" width="0.4064" layer="1"/>
<wire x1="28.194" y1="48.006" x2="29.464" y2="46.736" width="0.4064" layer="1"/>
<via x="28.956" y="60.452" extent="1-16" drill="0.6"/>
<wire x1="28.956" y1="60.452" x2="28.956" y2="67.31" width="0.4064" layer="1"/>
<wire x1="28.956" y1="67.31" x2="27.94" y2="68.326" width="0.4064" layer="1"/>
<wire x1="27.94" y1="68.326" x2="24.508" y2="68.326" width="0.4064" layer="1"/>
<wire x1="24.508" y1="68.326" x2="24.466" y2="68.284" width="0.4064" layer="1"/>
<wire x1="29.464" y1="46.736" x2="28.956" y2="47.244" width="0.4064" layer="16"/>
<wire x1="28.956" y1="47.244" x2="28.956" y2="60.452" width="0.4064" layer="16"/>
</signal>
<signal name="N$7">
<contactref element="U2" pad="GPIO15"/>
<contactref element="R8" pad="2"/>
<wire x1="40.866" y1="56.284" x2="44.678" y2="56.284" width="0.4064" layer="1"/>
<wire x1="44.678" y1="56.284" x2="44.704" y2="56.258" width="0.4064" layer="1"/>
</signal>
<signal name="N$8">
<contactref element="U2" pad="GPIO2"/>
<contactref element="R9" pad="2"/>
<wire x1="25.146" y1="45.342" x2="27.054" y2="45.342" width="0.4064" layer="1"/>
<wire x1="27.054" y1="45.342" x2="27.178" y2="45.466" width="0.4064" layer="1"/>
<via x="27.178" y="45.466" extent="1-16" drill="0.6"/>
<wire x1="40.748" y1="58.166" x2="40.866" y2="58.284" width="0.4064" layer="1"/>
<wire x1="27.178" y1="45.466" x2="27.178" y2="54.356" width="0.4064" layer="16"/>
<wire x1="27.178" y1="54.356" x2="27.94" y2="55.118" width="0.4064" layer="16"/>
<via x="27.94" y="55.118" extent="1-16" drill="0.6"/>
<wire x1="40.494" y1="57.912" x2="40.866" y2="58.284" width="0.4064" layer="1"/>
<wire x1="40.494" y1="57.912" x2="37.846" y2="57.912" width="0.4064" layer="1"/>
<wire x1="37.846" y1="57.912" x2="37.084" y2="57.15" width="0.4064" layer="1"/>
<wire x1="37.084" y1="57.15" x2="29.972" y2="57.15" width="0.4064" layer="1"/>
<wire x1="29.972" y1="57.15" x2="27.94" y2="55.118" width="0.4064" layer="1"/>
</signal>
<signal name="FLASH">
<contactref element="PGM" pad="5"/>
<contactref element="U2" pad="GPIO0"/>
<contactref element="R7" pad="2"/>
<wire x1="21.844" y1="45.342" x2="21.844" y2="45.466" width="0.4064" layer="1"/>
<wire x1="21.844" y1="45.466" x2="23.368" y2="46.99" width="0.4064" layer="1"/>
<wire x1="23.368" y1="46.99" x2="27.432" y2="46.99" width="0.4064" layer="1"/>
<wire x1="27.432" y1="46.99" x2="28.956" y2="45.466" width="0.4064" layer="1"/>
<wire x1="28.956" y1="45.466" x2="33.274" y2="45.466" width="0.4064" layer="1"/>
<wire x1="33.274" y1="45.466" x2="34.544" y2="44.196" width="0.4064" layer="1"/>
<wire x1="34.544" y1="44.196" x2="34.544" y2="44.45" width="0.4064" layer="1"/>
<via x="36.576" y="59.182" extent="1-16" drill="0.6"/>
<wire x1="36.576" y1="59.182" x2="38.608" y2="59.182" width="0.4064" layer="1"/>
<wire x1="38.608" y1="59.182" x2="39.37" y2="59.944" width="0.4064" layer="1"/>
<wire x1="39.37" y1="59.944" x2="40.526" y2="59.944" width="0.4064" layer="1"/>
<wire x1="40.526" y1="59.944" x2="40.866" y2="60.284" width="0.4064" layer="1"/>
<wire x1="36.576" y1="59.182" x2="36.576" y2="46.228" width="0.4064" layer="16"/>
<wire x1="36.576" y1="46.228" x2="34.544" y2="44.196" width="0.4064" layer="16"/>
</signal>
<signal name="V33">
<contactref element="U1" pad="GND"/>
<contactref element="C2" pad="1"/>
<contactref element="BTN" pad="1"/>
<contactref element="U2" pad="CH_PD"/>
<contactref element="R6" pad="2"/>
<contactref element="U2" pad="VCC"/>
<contactref element="R7" pad="1"/>
<contactref element="R9" pad="1"/>
<contactref element="PGM" pad="1"/>
<via x="16.764" y="47.244" extent="1-16" drill="0.6"/>
<wire x1="18.542" y1="42.542" x2="21.844" y2="42.542" width="0.4064" layer="1"/>
<wire x1="21.844" y1="42.542" x2="25.146" y2="42.542" width="0.4064" layer="1"/>
<wire x1="24.638" y1="54.112" x2="24.466" y2="54.284" width="0.4064" layer="1"/>
<wire x1="18.672" y1="42.672" x2="18.542" y2="42.542" width="0.4064" layer="1"/>
<wire x1="18.672" y1="42.672" x2="17.526" y2="42.672" width="0.4064" layer="1"/>
<wire x1="17.526" y1="42.672" x2="16.764" y2="43.434" width="0.4064" layer="1"/>
<wire x1="16.764" y1="43.434" x2="16.764" y2="47.244" width="0.4064" layer="1"/>
<wire x1="18.796" y1="47.244" x2="16.764" y2="47.244" width="0.4064" layer="1"/>
<wire x1="24.466" y1="54.284" x2="25.582" y2="54.284" width="0.4064" layer="1"/>
<wire x1="25.582" y1="54.284" x2="26.67" y2="55.372" width="0.4064" layer="1"/>
<wire x1="26.67" y1="55.372" x2="26.67" y2="62.992" width="0.4064" layer="1"/>
<wire x1="26.67" y1="62.992" x2="25.654" y2="64.008" width="0.4064" layer="1"/>
<wire x1="25.654" y1="64.008" x2="24.742" y2="64.008" width="0.4064" layer="1"/>
<wire x1="24.742" y1="64.008" x2="24.466" y2="64.284" width="0.4064" layer="1"/>
<wire x1="25.146" y1="42.542" x2="27.81" y2="42.542" width="0.4064" layer="1"/>
<wire x1="27.81" y1="42.542" x2="29.464" y2="44.196" width="0.4064" layer="1"/>
<wire x1="18.796" y1="47.244" x2="24.384" y2="52.832" width="0.4064" layer="1"/>
<wire x1="24.384" y1="52.832" x2="24.384" y2="54.202" width="0.4064" layer="1"/>
<wire x1="24.384" y1="54.202" x2="24.466" y2="54.284" width="0.4064" layer="1"/>
<wire x1="16.764" y1="47.244" x2="16.764" y2="50.292" width="0.4064" layer="16"/>
<wire x1="8.636" y1="62.23" x2="10.922" y2="62.23" width="0.4064" layer="16"/>
<wire x1="10.922" y1="62.23" x2="16.764" y2="56.388" width="0.4064" layer="16"/>
<wire x1="16.764" y1="56.388" x2="16.764" y2="50.292" width="0.4064" layer="16"/>
<wire x1="29.464" y1="44.196" x2="31.242" y2="42.418" width="0.4064" layer="1"/>
<wire x1="31.242" y1="42.418" x2="35.306" y2="42.418" width="0.4064" layer="1"/>
<wire x1="35.306" y1="42.418" x2="36.322" y2="43.434" width="0.4064" layer="1"/>
<wire x1="36.322" y1="43.434" x2="36.322" y2="44.704" width="0.4064" layer="1"/>
<wire x1="36.322" y1="44.704" x2="37.084" y2="45.466" width="0.4064" layer="1"/>
<wire x1="37.084" y1="45.466" x2="40.386" y2="45.466" width="0.4064" layer="1"/>
</signal>
</signals>
</board>
</drawing>
</eagle>
